// Jest Snapshot v1, https://goo.gl/fbAQLP

exports[`InlineEdit should render 1`] = `
<div>
  <div
    class="InlineEdit"
  >
    <div
      class="InlineEdit-fieldContainer InlineEdit-fieldContainer-pristine"
    >
      <div
        class="InlineEdit-displayText"
      />
    </div>
  </div>
</div>
`;
